Desktop=true
Robot=false
Hearing=false
voiceErrors=true
vision=true
start_app=true
personality=false
debug_txt=true




























































































