oh
oh
oh
oh
oh
oh
oh
oh
oh
oh
oh
oh
oh
oh
oh
oh
oh
oh
oh
oh
oh
oh
oh
oh
oh
oh
oh
oh
oh
oh
oh
oh
oh
oh
oh
oh
oh
oh
j
j
j
j
j
j
j
j
j
j
j
j
j
j
j
j
j
j
j
j
j
j
j
j
j
j
j
j
j
j
j
j
j
j
j
j
j
j
j
j
j
j
j
j
j
j
j
j
j
